{
  "$schema": "http://json-schema.org/draft-04/schema#",
  "title": "Entity",
  "id": "Entity",
  "description": "Maze entity",
  "type": "object",
  "properties": {
    "x": {
      "description": "x position in maze",
      "type": "integer",
      "minimum": 0
    },
    "y": {
      "description": "y position in maze",
      "type": "integer",
      "minimum": 0
    },
    "state": {
      "$ref": "EntityState"
    }
  },
  "required": [
    "x",
    "y"
  ]
}
